10d7ce2f43e35fa57d1bbf8b1e2, 2014-04-28T14:15:54, 10.00
10d7ce2f43e35fa57d1bbf8b1e2, 2014-04-29T12:25:54, 20.00
10d7ce2f43e35fa57d1bbf8b1e3, 2014-04-30T14:55:54, 30.00
10d7ce2f43e35fa57d1bbf8b1e3, 2014-04-28T10:45:54, 40.00
10d7ce2f43e35fa57d1bbf8b1e2, 2014-04-28T16:35:54, 10.00
10d7ce2f43e35fa57d1bbf8b1e2, 2014-04-29T17:24:54, 30.00
10d7ce2f43e35fa57d1bbf8b1e3, 2014-04-29T19:20:54, 50.00
10d7ce2f43e35fa57d1bbf8b1e3, 2014-04-29T11:19:54, 60.00